{
    "version": "1.0.0",
    "summary": "Test Suites",
    "repository": "https://github.com/user/project.git",
    "license": "ISC",
    "source-directories": [
        "../src",
        "."
    ],
    "exposed-modules": [],
    "dependencies": {
        "NoRedInk/elm-decode-pipeline": "3.0.0 <= v < 4.0.0",
        "eeue56/elm-html-test": "5.2.0 <= v < 6.0.0",
        "elm-community/elm-test": "4.0.0 <= v < 5.0.0",
        "elm-community/json-extra": "2.1.0 <= v < 3.0.0",
        "elm-lang/core": "5.0.0 <= v < 6.0.0",
        "elm-lang/dom": "1.1.1 <= v < 2.0.0",
        "elm-lang/html": "2.0.0 <= v < 3.0.0",
        "elm-lang/http": "1.0.0 <= v < 2.0.0",
        "elm-lang/navigation": "2.1.0 <= v < 3.0.0",
        "elm-lang/svg": "2.0.0 <= v < 3.0.0",
        "evancz/url-parser": "2.0.1 <= v < 3.0.0",
        "fapian/elm-html-aria": "1.3.0 <= v < 2.0.0",
        "gampleman/elm-visualization": "1.6.0 <= v < 2.0.0",
        "justinmimbs/elm-date-extra": "3.0.0 <= v < 4.0.0",
        "lukewestby/elm-http-builder": "5.1.0 <= v < 6.0.0",
        "mgold/elm-date-format": "1.3.0 <= v < 2.0.0",
        "rtfeldman/elm-validate": "3.0.0 <= v < 4.0.0",
        "rtfeldman/selectlist": "1.0.0 <= v < 2.0.0"
    },
    "elm-version": "0.18.0 <= v < 0.19.0"
}
